-- Merging decision tree log ---
manifest
ADDED from /Users/rizkialfiramdhani/Programming/Flutter/fitness_app/android/app/src/main/AndroidManifest.xml:1:1-30:12
INJECTED from /Users/rizkialfiramdhani/Programming/Flutter/fitness_app/android/app/src/main/AndroidManifest.xml:1:1-30:12
INJECTED from /Users/rizkialfiramdhani/Programming/Flutter/fitness_app/android/app/src/main/AndroidManifest.xml:1:1-30:12
INJECTED from /Users/rizkialfiramdhani/Programming/Flutter/fitness_app/android/app/src/main/AndroidManifest.xml:1:1-30:12
MERGED from /Users/rizkialfiramdhani/Programming/Flutter/fitness_app/android/app/src/main/AndroidManifest.xml:1:1-30:12
MERGED from [:audioplayers] /Users/rizkialfiramdhani/Programming/Flutter/fitness_app/build/audioplayers/intermediates/library_manifest/debug/AndroidManifest.xml:2:1-9:12
MERGED from [:path_provider] /Users/rizkialfiramdhani/Programming/Flutter/fitness_app/build/path_provider/intermediates/library_manifest/debug/AndroidManifest.xml:2:1-7:12
MERGED from [:path_provider_macos] /Users/rizkialfiramdhani/Programming/Flutter/fitness_app/build/path_provider_macos/intermediates/library_manifest/debug/AndroidManifest.xml:2:1-7:12
MERGED from [:sqflite] /Users/rizkialfiramdhani/Programming/Flutter/fitness_app/build/sqflite/intermediates/library_manifest/debug/AndroidManifest.xml:2:1-7:12
MERGED from [com.microsoft.appcenter:appcenter-analytics:3.2.1] /Users/rizkialfiramdhani/.gradle/caches/transforms-2/files-2.1/1aa5f35a94e840edc4ff010003c19905/jetified-appcenter-analytics-3.2.1/AndroidManifest.xml:6:1-15:12
MERGED from [com.microsoft.appcenter:appcenter-crashes:3.2.1] /Users/rizkialfiramdhani/.gradle/caches/transforms-2/files-2.1/b684d0a61b8cd8c703dae775d28825b8/jetified-appcenter-crashes-3.2.1/AndroidManifest.xml:6:1-15:12
MERGED from [androidx.fragment:fragment:1.1.0] /Users/rizkialfiramdhani/.gradle/caches/transforms-2/files-2.1/0986d0d74b8a2c7da8161f6370fc7744/fragment-1.1.0/AndroidManifest.xml:17:1-24:12
MERGED from [androidx.activity:activity:1.0.0] /Users/rizkialfiramdhani/.gradle/caches/transforms-2/files-2.1/615cab8ad6393a9c868d48761bbea666/activity-1.0.0/AndroidManifest.xml:17:1-24:12
MERGED from [androidx.viewpager:viewpager:1.0.0] /Users/rizkialfiramdhani/.gradle/caches/transforms-2/files-2.1/28d99d5113324aa067757f8ca41a426f/viewpager-1.0.0/AndroidManifest.xml:17:1-22:12
MERGED from [androidx.loader:loader:1.0.0] /Users/rizkialfiramdhani/.gradle/caches/transforms-2/files-2.1/e1bbce6b0d79e8479b70e7bd729bb743/loader-1.0.0/AndroidManifest.xml:17:1-22:12
MERGED from [androidx.customview:customview:1.0.0] /Users/rizkialfiramdhani/.gradle/caches/transforms-2/files-2.1/ef0bef029ab70f5fb29de019060cf5fd/customview-1.0.0/AndroidManifest.xml:17:1-22:12
MERGED from [androidx.core:core:1.1.0] /Users/rizkialfiramdhani/.gradle/caches/transforms-2/files-2.1/a528b13ac93e64cafa3d0480e2c93207/core-1.1.0/AndroidManifest.xml:17:1-26:12
MERGED from [androidx.lifecycle:lifecycle-runtime:2.2.0] /Users/rizkialfiramdhani/.gradle/caches/transforms-2/files-2.1/49ede1f7b9aa322a43288e9745adc2db/lifecycle-runtime-2.2.0/AndroidManifest.xml:17:1-24:12
MERGED from [androidx.savedstate:savedstate:1.0.0] /Users/rizkialfiramdhani/.gradle/caches/transforms-2/files-2.1/54d8b8735f730e83f07925f758092af3/savedstate-1.0.0/AndroidManifest.xml:17:1-24:12
MERGED from [androidx.lifecycle:lifecycle-livedata:2.0.0] /Users/rizkialfiramdhani/.gradle/caches/transforms-2/files-2.1/23edc849475fdda61367cb003f9b9f93/lifecycle-livedata-2.0.0/AndroidManifest.xml:17:1-22:12
MERGED from [androidx.lifecycle:lifecycle-livedata-core:2.0.0] /Users/rizkialfiramdhani/.gradle/caches/transforms-2/files-2.1/79f9d65ef8b1c716310f666473a689a7/lifecycle-livedata-core-2.0.0/AndroidManifest.xml:17:1-22:12
MERGED from [androidx.arch.core:core-runtime:2.0.0] /Users/rizkialfiramdhani/.gradle/caches/transforms-2/files-2.1/077300052aa327ee6fc9bbb0ce309b24/core-runtime-2.0.0/AndroidManifest.xml:17:1-22:12
MERGED from [androidx.versionedparcelable:versionedparcelable:1.1.0] /Users/rizkialfiramdhani/.gradle/caches/transforms-2/files-2.1/3a7eb299570065a3866b140e1a95969b/versionedparcelable-1.1.0/AndroidManifest.xml:17:1-27:12
MERGED from [androidx.lifecycle:lifecycle-viewmodel:2.1.0] /Users/rizkialfiramdhani/.gradle/caches/transforms-2/files-2.1/b80fad55c42c418cc210e235056767fb/lifecycle-viewmodel-2.1.0/AndroidManifest.xml:17:1-22:12
MERGED from [com.microsoft.appcenter:appcenter:3.2.1] /Users/rizkialfiramdhani/.gradle/caches/transforms-2/files-2.1/47d97f34780584bafcf2200f6774d034/jetified-appcenter-3.2.1/AndroidManifest.xml:6:1-18:12
INJECTED from /Users/rizkialfiramdhani/Programming/Flutter/fitness_app/android/app/src/debug/AndroidManifest.xml:1:1-7:12
INJECTED from /Users/rizkialfiramdhani/Programming/Flutter/fitness_app/android/app/src/debug/AndroidManifest.xml:1:1-7:12
INJECTED from /Users/rizkialfiramdhani/Programming/Flutter/fitness_app/android/app/src/debug/AndroidManifest.xml:1:1-7:12
	package
		ADDED from /Users/rizkialfiramdhani/Programming/Flutter/fitness_app/android/app/src/main/AndroidManifest.xml:2:5-37
		INJECTED from /Users/rizkialfiramdhani/Programming/Flutter/fitness_app/android/app/src/main/AndroidManifest.xml
		INJECTED from /Users/rizkialfiramdhani/Programming/Flutter/fitness_app/android/app/src/debug/AndroidManifest.xml
	android:versionName
		INJECTED from /Users/rizkialfiramdhani/Programming/Flutter/fitness_app/android/app/src/main/AndroidManifest.xml
		ADDED from /Users/rizkialfiramdhani/Programming/Flutter/fitness_app/android/app/src/main/AndroidManifest.xml:1:1-30:12
		INJECTED from /Users/rizkialfiramdhani/Programming/Flutter/fitness_app/android/app/src/debug/AndroidManifest.xml
	android:versionCode
		INJECTED from /Users/rizkialfiramdhani/Programming/Flutter/fitness_app/android/app/src/main/AndroidManifest.xml
		ADDED from /Users/rizkialfiramdhani/Programming/Flutter/fitness_app/android/app/src/main/AndroidManifest.xml:1:1-30:12
		INJECTED from /Users/rizkialfiramdhani/Programming/Flutter/fitness_app/android/app/src/debug/AndroidManifest.xml
	xmlns:android
		ADDED from /Users/rizkialfiramdhani/Programming/Flutter/fitness_app/android/app/src/main/AndroidManifest.xml:1:11-69
application
ADDED from /Users/rizkialfiramdhani/Programming/Flutter/fitness_app/android/app/src/main/AndroidManifest.xml:8:5-29:19
MERGED from [androidx.core:core:1.1.0] /Users/rizkialfiramdhani/.gradle/caches/transforms-2/files-2.1/a528b13ac93e64cafa3d0480e2c93207/core-1.1.0/AndroidManifest.xml:24:5-89
MERGED from [androidx.core:core:1.1.0] /Users/rizkialfiramdhani/.gradle/caches/transforms-2/files-2.1/a528b13ac93e64cafa3d0480e2c93207/core-1.1.0/AndroidManifest.xml:24:5-89
MERGED from [androidx.versionedparcelable:versionedparcelable:1.1.0] /Users/rizkialfiramdhani/.gradle/caches/transforms-2/files-2.1/3a7eb299570065a3866b140e1a95969b/versionedparcelable-1.1.0/AndroidManifest.xml:24:5-25:19
MERGED from [androidx.versionedparcelable:versionedparcelable:1.1.0] /Users/rizkialfiramdhani/.gradle/caches/transforms-2/files-2.1/3a7eb299570065a3866b140e1a95969b/versionedparcelable-1.1.0/AndroidManifest.xml:24:5-25:19
	android:appComponentFactory
		ADDED from [androidx.core:core:1.1.0] /Users/rizkialfiramdhani/.gradle/caches/transforms-2/files-2.1/a528b13ac93e64cafa3d0480e2c93207/core-1.1.0/AndroidManifest.xml:24:18-86
	android:label
		ADDED from /Users/rizkialfiramdhani/Programming/Flutter/fitness_app/android/app/src/main/AndroidManifest.xml:10:9-35
	android:icon
		ADDED from /Users/rizkialfiramdhani/Programming/Flutter/fitness_app/android/app/src/main/AndroidManifest.xml:11:9-45
	android:name
		ADDED from /Users/rizkialfiramdhani/Programming/Flutter/fitness_app/android/app/src/main/AndroidManifest.xml:9:9-57
activity#com.example.fitnessapp.MainActivity
ADDED from /Users/rizkialfiramdhani/Programming/Flutter/fitness_app/android/app/src/main/AndroidManifest.xml:12:9-23:20
	android:launchMode
		ADDED from /Users/rizkialfiramdhani/Programming/Flutter/fitness_app/android/app/src/main/AndroidManifest.xml:14:13-43
	android:hardwareAccelerated
		ADDED from /Users/rizkialfiramdhani/Programming/Flutter/fitness_app/android/app/src/main/AndroidManifest.xml:17:13-47
	android:windowSoftInputMode
		ADDED from /Users/rizkialfiramdhani/Programming/Flutter/fitness_app/android/app/src/main/AndroidManifest.xml:18:13-55
	android:configChanges
		ADDED from /Users/rizkialfiramdhani/Programming/Flutter/fitness_app/android/app/src/main/AndroidManifest.xml:16:13-163
	android:theme
		ADDED from /Users/rizkialfiramdhani/Programming/Flutter/fitness_app/android/app/src/main/AndroidManifest.xml:15:13-47
	android:name
		ADDED from /Users/rizkialfiramdhani/Programming/Flutter/fitness_app/android/app/src/main/AndroidManifest.xml:13:13-41
intent-filter#action:name:android.intent.action.MAIN+category:name:android.intent.category.LAUNCHER
ADDED from /Users/rizkialfiramdhani/Programming/Flutter/fitness_app/android/app/src/main/AndroidManifest.xml:19:13-22:29
action#android.intent.action.MAIN
ADDED from /Users/rizkialfiramdhani/Programming/Flutter/fitness_app/android/app/src/main/AndroidManifest.xml:20:17-68
	android:name
		ADDED from /Users/rizkialfiramdhani/Programming/Flutter/fitness_app/android/app/src/main/AndroidManifest.xml:20:25-66
category#android.intent.category.LAUNCHER
ADDED from /Users/rizkialfiramdhani/Programming/Flutter/fitness_app/android/app/src/main/AndroidManifest.xml:21:17-76
	android:name
		ADDED from /Users/rizkialfiramdhani/Programming/Flutter/fitness_app/android/app/src/main/AndroidManifest.xml:21:27-74
meta-data#flutterEmbedding
ADDED from /Users/rizkialfiramdhani/Programming/Flutter/fitness_app/android/app/src/main/AndroidManifest.xml:26:9-28:33
	android:value
		ADDED from /Users/rizkialfiramdhani/Programming/Flutter/fitness_app/android/app/src/main/AndroidManifest.xml:28:13-30
	android:name
		ADDED from /Users/rizkialfiramdhani/Programming/Flutter/fitness_app/android/app/src/main/AndroidManifest.xml:27:13-44
uses-sdk
INJECTED from /Users/rizkialfiramdhani/Programming/Flutter/fitness_app/android/app/src/main/AndroidManifest.xml reason: use-sdk injection requested
INJECTED from /Users/rizkialfiramdhani/Programming/Flutter/fitness_app/android/app/src/main/AndroidManifest.xml
INJECTED from /Users/rizkialfiramdhani/Programming/Flutter/fitness_app/android/app/src/main/AndroidManifest.xml
MERGED from [:audioplayers] /Users/rizkialfiramdhani/Programming/Flutter/fitness_app/build/audioplayers/intermediates/library_manifest/debug/AndroidManifest.xml:7:5-44
MERGED from [:audioplayers] /Users/rizkialfiramdhani/Programming/Flutter/fitness_app/build/audioplayers/intermediates/library_manifest/debug/AndroidManifest.xml:7:5-44
MERGED from [:path_provider] /Users/rizkialfiramdhani/Programming/Flutter/fitness_app/build/path_provider/intermediates/library_manifest/debug/AndroidManifest.xml:5:5-44
MERGED from [:path_provider] /Users/rizkialfiramdhani/Programming/Flutter/fitness_app/build/path_provider/intermediates/library_manifest/debug/AndroidManifest.xml:5:5-44
MERGED from [:path_provider_macos] /Users/rizkialfiramdhani/Programming/Flutter/fitness_app/build/path_provider_macos/intermediates/library_manifest/debug/AndroidManifest.xml:5:5-44
MERGED from [:path_provider_macos] /Users/rizkialfiramdhani/Programming/Flutter/fitness_app/build/path_provider_macos/intermediates/library_manifest/debug/AndroidManifest.xml:5:5-44
MERGED from [:sqflite] /Users/rizkialfiramdhani/Programming/Flutter/fitness_app/build/sqflite/intermediates/library_manifest/debug/AndroidManifest.xml:5:5-44
MERGED from [:sqflite] /Users/rizkialfiramdhani/Programming/Flutter/fitness_app/build/sqflite/intermediates/library_manifest/debug/AndroidManifest.xml:5:5-44
MERGED from [com.microsoft.appcenter:appcenter-analytics:3.2.1] /Users/rizkialfiramdhani/.gradle/caches/transforms-2/files-2.1/1aa5f35a94e840edc4ff010003c19905/jetified-appcenter-analytics-3.2.1/AndroidManifest.xml:11:5-13:41
MERGED from [com.microsoft.appcenter:appcenter-analytics:3.2.1] /Users/rizkialfiramdhani/.gradle/caches/transforms-2/files-2.1/1aa5f35a94e840edc4ff010003c19905/jetified-appcenter-analytics-3.2.1/AndroidManifest.xml:11:5-13:41
MERGED from [com.microsoft.appcenter:appcenter-crashes:3.2.1] /Users/rizkialfiramdhani/.gradle/caches/transforms-2/files-2.1/b684d0a61b8cd8c703dae775d28825b8/jetified-appcenter-crashes-3.2.1/AndroidManifest.xml:11:5-13:41
MERGED from [com.microsoft.appcenter:appcenter-crashes:3.2.1] /Users/rizkialfiramdhani/.gradle/caches/transforms-2/files-2.1/b684d0a61b8cd8c703dae775d28825b8/jetified-appcenter-crashes-3.2.1/AndroidManifest.xml:11:5-13:41
MERGED from [androidx.fragment:fragment:1.1.0] /Users/rizkialfiramdhani/.gradle/caches/transforms-2/files-2.1/0986d0d74b8a2c7da8161f6370fc7744/fragment-1.1.0/AndroidManifest.xml:20:5-22:41
MERGED from [androidx.fragment:fragment:1.1.0] /Users/rizkialfiramdhani/.gradle/caches/transforms-2/files-2.1/0986d0d74b8a2c7da8161f6370fc7744/fragment-1.1.0/AndroidManifest.xml:20:5-22:41
MERGED from [androidx.activity:activity:1.0.0] /Users/rizkialfiramdhani/.gradle/caches/transforms-2/files-2.1/615cab8ad6393a9c868d48761bbea666/activity-1.0.0/AndroidManifest.xml:20:5-22:41
MERGED from [androidx.activity:activity:1.0.0] /Users/rizkialfiramdhani/.gradle/caches/transforms-2/files-2.1/615cab8ad6393a9c868d48761bbea666/activity-1.0.0/AndroidManifest.xml:20:5-22:41
MERGED from [androidx.viewpager:viewpager:1.0.0] /Users/rizkialfiramdhani/.gradle/caches/transforms-2/files-2.1/28d99d5113324aa067757f8ca41a426f/viewpager-1.0.0/AndroidManifest.xml:20:5-44
MERGED from [androidx.viewpager:viewpager:1.0.0] /Users/rizkialfiramdhani/.gradle/caches/transforms-2/files-2.1/28d99d5113324aa067757f8ca41a426f/viewpager-1.0.0/AndroidManifest.xml:20:5-44
MERGED from [androidx.loader:loader:1.0.0] /Users/rizkialfiramdhani/.gradle/caches/transforms-2/files-2.1/e1bbce6b0d79e8479b70e7bd729bb743/loader-1.0.0/AndroidManifest.xml:20:5-44
MERGED from [androidx.loader:loader:1.0.0] /Users/rizkialfiramdhani/.gradle/caches/transforms-2/files-2.1/e1bbce6b0d79e8479b70e7bd729bb743/loader-1.0.0/AndroidManifest.xml:20:5-44
MERGED from [androidx.customview:customview:1.0.0] /Users/rizkialfiramdhani/.gradle/caches/transforms-2/files-2.1/ef0bef029ab70f5fb29de019060cf5fd/customview-1.0.0/AndroidManifest.xml:20:5-44
MERGED from [androidx.customview:customview:1.0.0] /Users/rizkialfiramdhani/.gradle/caches/transforms-2/files-2.1/ef0bef029ab70f5fb29de019060cf5fd/customview-1.0.0/AndroidManifest.xml:20:5-44
MERGED from [androidx.core:core:1.1.0] /Users/rizkialfiramdhani/.gradle/caches/transforms-2/files-2.1/a528b13ac93e64cafa3d0480e2c93207/core-1.1.0/AndroidManifest.xml:20:5-22:41
MERGED from [androidx.core:core:1.1.0] /Users/rizkialfiramdhani/.gradle/caches/transforms-2/files-2.1/a528b13ac93e64cafa3d0480e2c93207/core-1.1.0/AndroidManifest.xml:20:5-22:41
MERGED from [androidx.lifecycle:lifecycle-runtime:2.2.0] /Users/rizkialfiramdhani/.gradle/caches/transforms-2/files-2.1/49ede1f7b9aa322a43288e9745adc2db/lifecycle-runtime-2.2.0/AndroidManifest.xml:20:5-22:41
MERGED from [androidx.lifecycle:lifecycle-runtime:2.2.0] /Users/rizkialfiramdhani/.gradle/caches/transforms-2/files-2.1/49ede1f7b9aa322a43288e9745adc2db/lifecycle-runtime-2.2.0/AndroidManifest.xml:20:5-22:41
MERGED from [androidx.savedstate:savedstate:1.0.0] /Users/rizkialfiramdhani/.gradle/caches/transforms-2/files-2.1/54d8b8735f730e83f07925f758092af3/savedstate-1.0.0/AndroidManifest.xml:20:5-22:41
MERGED from [androidx.savedstate:savedstate:1.0.0] /Users/rizkialfiramdhani/.gradle/caches/transforms-2/files-2.1/54d8b8735f730e83f07925f758092af3/savedstate-1.0.0/AndroidManifest.xml:20:5-22:41
MERGED from [androidx.lifecycle:lifecycle-livedata:2.0.0] /Users/rizkialfiramdhani/.gradle/caches/transforms-2/files-2.1/23edc849475fdda61367cb003f9b9f93/lifecycle-livedata-2.0.0/AndroidManifest.xml:20:5-44
MERGED from [androidx.lifecycle:lifecycle-livedata:2.0.0] /Users/rizkialfiramdhani/.gradle/caches/transforms-2/files-2.1/23edc849475fdda61367cb003f9b9f93/lifecycle-livedata-2.0.0/AndroidManifest.xml:20:5-44
MERGED from [androidx.lifecycle:lifecycle-livedata-core:2.0.0] /Users/rizkialfiramdhani/.gradle/caches/transforms-2/files-2.1/79f9d65ef8b1c716310f666473a689a7/lifecycle-livedata-core-2.0.0/AndroidManifest.xml:20:5-44
MERGED from [androidx.lifecycle:lifecycle-livedata-core:2.0.0] /Users/rizkialfiramdhani/.gradle/caches/transforms-2/files-2.1/79f9d65ef8b1c716310f666473a689a7/lifecycle-livedata-core-2.0.0/AndroidManifest.xml:20:5-44
MERGED from [androidx.arch.core:core-runtime:2.0.0] /Users/rizkialfiramdhani/.gradle/caches/transforms-2/files-2.1/077300052aa327ee6fc9bbb0ce309b24/core-runtime-2.0.0/AndroidManifest.xml:20:5-44
MERGED from [androidx.arch.core:core-runtime:2.0.0] /Users/rizkialfiramdhani/.gradle/caches/transforms-2/files-2.1/077300052aa327ee6fc9bbb0ce309b24/core-runtime-2.0.0/AndroidManifest.xml:20:5-44
MERGED from [androidx.versionedparcelable:versionedparcelable:1.1.0] /Users/rizkialfiramdhani/.gradle/caches/transforms-2/files-2.1/3a7eb299570065a3866b140e1a95969b/versionedparcelable-1.1.0/AndroidManifest.xml:20:5-22:41
MERGED from [androidx.versionedparcelable:versionedparcelable:1.1.0] /Users/rizkialfiramdhani/.gradle/caches/transforms-2/files-2.1/3a7eb299570065a3866b140e1a95969b/versionedparcelable-1.1.0/AndroidManifest.xml:20:5-22:41
MERGED from [androidx.lifecycle:lifecycle-viewmodel:2.1.0] /Users/rizkialfiramdhani/.gradle/caches/transforms-2/files-2.1/b80fad55c42c418cc210e235056767fb/lifecycle-viewmodel-2.1.0/AndroidManifest.xml:20:5-44
MERGED from [androidx.lifecycle:lifecycle-viewmodel:2.1.0] /Users/rizkialfiramdhani/.gradle/caches/transforms-2/files-2.1/b80fad55c42c418cc210e235056767fb/lifecycle-viewmodel-2.1.0/AndroidManifest.xml:20:5-44
MERGED from [com.microsoft.appcenter:appcenter:3.2.1] /Users/rizkialfiramdhani/.gradle/caches/transforms-2/files-2.1/47d97f34780584bafcf2200f6774d034/jetified-appcenter-3.2.1/AndroidManifest.xml:11:5-13:41
MERGED from [com.microsoft.appcenter:appcenter:3.2.1] /Users/rizkialfiramdhani/.gradle/caches/transforms-2/files-2.1/47d97f34780584bafcf2200f6774d034/jetified-appcenter-3.2.1/AndroidManifest.xml:11:5-13:41
INJECTED from /Users/rizkialfiramdhani/Programming/Flutter/fitness_app/android/app/src/debug/AndroidManifest.xml
INJECTED from /Users/rizkialfiramdhani/Programming/Flutter/fitness_app/android/app/src/debug/AndroidManifest.xml
	android:targetSdkVersion
		INJECTED from /Users/rizkialfiramdhani/Programming/Flutter/fitness_app/android/app/src/main/AndroidManifest.xml
		INJECTED from /Users/rizkialfiramdhani/Programming/Flutter/fitness_app/android/app/src/debug/AndroidManifest.xml
	android:minSdkVersion
		INJECTED from /Users/rizkialfiramdhani/Programming/Flutter/fitness_app/android/app/src/main/AndroidManifest.xml
		INJECTED from /Users/rizkialfiramdhani/Programming/Flutter/fitness_app/android/app/src/debug/AndroidManifest.xml
uses-permission#android.permission.INTERNET
ADDED from /Users/rizkialfiramdhani/Programming/Flutter/fitness_app/android/app/src/debug/AndroidManifest.xml:6:5-66
MERGED from [com.microsoft.appcenter:appcenter:3.2.1] /Users/rizkialfiramdhani/.gradle/caches/transforms-2/files-2.1/47d97f34780584bafcf2200f6774d034/jetified-appcenter-3.2.1/AndroidManifest.xml:15:5-67
MERGED from [com.microsoft.appcenter:appcenter:3.2.1] /Users/rizkialfiramdhani/.gradle/caches/transforms-2/files-2.1/47d97f34780584bafcf2200f6774d034/jetified-appcenter-3.2.1/AndroidManifest.xml:15:5-67
	android:name
		ADDED from /Users/rizkialfiramdhani/Programming/Flutter/fitness_app/android/app/src/debug/AndroidManifest.xml:6:22-64
uses-permission#android.permission.ACCESS_NETWORK_STATE
ADDED from [com.microsoft.appcenter:appcenter:3.2.1] /Users/rizkialfiramdhani/.gradle/caches/transforms-2/files-2.1/47d97f34780584bafcf2200f6774d034/jetified-appcenter-3.2.1/AndroidManifest.xml:16:5-79
	android:name
		ADDED from [com.microsoft.appcenter:appcenter:3.2.1] /Users/rizkialfiramdhani/.gradle/caches/transforms-2/files-2.1/47d97f34780584bafcf2200f6774d034/jetified-appcenter-3.2.1/AndroidManifest.xml:16:22-76
